%YAML 1.1
%TAG !u! tag:unity3d.com,2011:
--- !u!1 &3614384075343331159
GameObject:
  m_ObjectHideFlags: 0
  m_CorrespondingSourceObject: {fileID: 0}
  m_PrefabInstance: {fileID: 0}
  m_PrefabAsset: {fileID: 0}
  serializedVersion: 6
  m_Component:
  - component: {fileID: 3614384075343331162}
  - component: {fileID: 3614384075343331161}
  - component: {fileID: 3614384075343331160}
  m_Layer: 0
  m_Name: Terrain 1
  m_TagString: Untagged
  m_Icon: {fileID: 0}
  m_NavMeshLayer: 0
  m_StaticEditorFlags: 4294967295
  m_IsActive: 1
--- !u!4 &3614384075343331162
Transform:
  m_ObjectHideFlags: 0
  m_CorrespondingSourceObject: {fileID: 0}
  m_PrefabInstance: {fileID: 0}
  m_PrefabAsset: {fileID: 0}
  m_GameObject: {fileID: 3614384075343331159}
  m_LocalRotation: {x: 0, y: 0, z: 0, w: 1}
  m_LocalPosition: {x: 0, y: 0, z: 0}
  m_LocalScale: {x: 1, y: 1, z: 1}
  m_Children:
  - {fileID: 3614384075273614258}
  m_Father: {fileID: 0}
  m_RootOrder: 0
  m_LocalEulerAnglesHint: {x: 0, y: 0, z: 0}
--- !u!218 &3614384075343331161
Terrain:
  m_ObjectHideFlags: 0
  m_CorrespondingSourceObject: {fileID: 0}
  m_PrefabInstance: {fileID: 0}
  m_PrefabAsset: {fileID: 0}
  m_GameObject: {fileID: 3614384075343331159}
  m_Enabled: 1
  serializedVersion: 6
  m_TerrainData: {fileID: 15600000, guid: 48f29668a4bf17f469e93aace2d0ebfb, type: 2}
  m_TreeDistance: 5000
  m_TreeBillboardDistance: 50
  m_TreeCrossFadeLength: 5
  m_TreeMaximumFullLODCount: 50
  m_DetailObjectDistance: 80
  m_DetailObjectDensity: 1
  m_HeightmapPixelError: 5
  m_SplatMapDistance: 1000
  m_HeightmapMaximumLOD: 0
  m_ShadowCastingMode: 2
  m_DrawHeightmap: 1
  m_DrawInstanced: 0
  m_DrawTreesAndFoliage: 1
  m_ReflectionProbeUsage: 1
  m_MaterialTemplate: {fileID: 10652, guid: 0000000000000000f000000000000000, type: 0}
  m_BakeLightProbesForTrees: 1
  m_PreserveTreePrototypeLayers: 0
  m_DeringLightProbesForTrees: 1
  m_ScaleInLightmap: 0.0256
  m_LightmapParameters: {fileID: 15203, guid: 0000000000000000f000000000000000, type: 0}
  m_GroupingID: 0
  m_RenderingLayerMask: 1
  m_AllowAutoConnect: 1
--- !u!154 &3614384075343331160
TerrainCollider:
  m_ObjectHideFlags: 0
  m_CorrespondingSourceObject: {fileID: 0}
  m_PrefabInstance: {fileID: 0}
  m_PrefabAsset: {fileID: 0}
  m_GameObject: {fileID: 3614384075343331159}
  m_Material: {fileID: 0}
  m_Enabled: 1
  m_TerrainData: {fileID: 15600000, guid: 48f29668a4bf17f469e93aace2d0ebfb, type: 2}
  m_EnableTreeColliders: 1
--- !u!1001 &3758955129542360862
PrefabInstance:
  m_ObjectHideFlags: 0
  serializedVersion: 2
  m_Modification:
    m_TransformParent: {fileID: 3614384075343331162}
    m_Modifications:
    - target: {fileID: 433087652695248044, guid: eb2cf5ce9368ba84796b677493490ec0,
        type: 3}
      propertyPath: m_RootOrder
      value: 0
      objectReference: {fileID: 0}
    - target: {fileID: 433087652695248044, guid: eb2cf5ce9368ba84796b677493490ec0,
        type: 3}
      propertyPath: m_LocalPosition.x
      value: 530.5185
      objectReference: {fileID: 0}
    - target: {fileID: 433087652695248044, guid: eb2cf5ce9368ba84796b677493490ec0,
        type: 3}
      propertyPath: m_LocalPosition.y
      value: 7.2707043
      objectReference: {fileID: 0}
    - target: {fileID: 433087652695248044, guid: eb2cf5ce9368ba84796b677493490ec0,
        type: 3}
      propertyPath: m_LocalPosition.z
      value: 344.4714
      objectReference: {fileID: 0}
    - target: {fileID: 433087652695248044, guid: eb2cf5ce9368ba84796b677493490ec0,
        type: 3}
      propertyPath: m_LocalRotation.w
      value: 1
      objectReference: {fileID: 0}
    - target: {fileID: 433087652695248044, guid: eb2cf5ce9368ba84796b677493490ec0,
        type: 3}
      propertyPath: m_LocalRotation.x
      value: -0
      objectReference: {fileID: 0}
    - target: {fileID: 433087652695248044, guid: eb2cf5ce9368ba84796b677493490ec0,
        type: 3}
      propertyPath: m_LocalRotation.y
      value: -0
      objectReference: {fileID: 0}
    - target: {fileID: 433087652695248044, guid: eb2cf5ce9368ba84796b677493490ec0,
        type: 3}
      propertyPath: m_LocalRotation.z
      value: -0
      objectReference: {fileID: 0}
    - target: {fileID: 433087652695248044, guid: eb2cf5ce9368ba84796b677493490ec0,
        type: 3}
      propertyPath: m_LocalEulerAnglesHint.x
      value: 0
      objectReference: {fileID: 0}
    - target: {fileID: 433087652695248044, guid: eb2cf5ce9368ba84796b677493490ec0,
        type: 3}
      propertyPath: m_LocalEulerAnglesHint.y
      value: 0
      objectReference: {fileID: 0}
    - target: {fileID: 433087652695248044, guid: eb2cf5ce9368ba84796b677493490ec0,
        type: 3}
      propertyPath: m_LocalEulerAnglesHint.z
      value: 0
      objectReference: {fileID: 0}
    - target: {fileID: 433087652695248047, guid: eb2cf5ce9368ba84796b677493490ec0,
        type: 3}
      propertyPath: m_Name
      value: House
      objectReference: {fileID: 0}
    m_RemovedComponents: []
  m_SourcePrefab: {fileID: 100100000, guid: eb2cf5ce9368ba84796b677493490ec0, type: 3}
--- !u!4 &3614384075273614258 stripped
Transform:
  m_CorrespondingSourceObject: {fileID: 433087652695248044, guid: eb2cf5ce9368ba84796b677493490ec0,
    type: 3}
  m_PrefabInstance: {fileID: 3758955129542360862}
  m_PrefabAsset: {fileID: 0}
