%YAML 1.1
%TAG !u! tag:unity3d.com,2011:
--- !u!29 &1
OcclusionCullingSettings:
  m_ObjectHideFlags: 0
  serializedVersion: 2
  m_OcclusionBakeSettings:
    smallestOccluder: 5
    smallestHole: 0.25
    backfaceThreshold: 100
  m_SceneGUID: 00000000000000000000000000000000
  m_OcclusionCullingData: {fileID: 0}
--- !u!104 &2
RenderSettings:
  m_ObjectHideFlags: 0
  serializedVersion: 9
  m_Fog: 0
  m_FogColor: {r: 0.5, g: 0.5, b: 0.5, a: 1}
  m_FogMode: 3
  m_FogDensity: 0.01
  m_LinearFogStart: 0
  m_LinearFogEnd: 300
  m_AmbientSkyColor: {r: 0.212, g: 0.227, b: 0.259, a: 1}
  m_AmbientEquatorColor: {r: 0.114, g: 0.125, b: 0.133, a: 1}
  m_AmbientGroundColor: {r: 0.047, g: 0.043, b: 0.035, a: 1}
  m_AmbientIntensity: 1
  m_AmbientMode: 0
  m_SubtractiveShadowColor: {r: 0.42, g: 0.478, b: 0.627, a: 1}
  m_SkyboxMaterial: {fileID: 10304, guid: 0000000000000000f000000000000000, type: 0}
  m_HaloStrength: 0.5
  m_FlareStrength: 1
  m_FlareFadeSpeed: 3
  m_HaloTexture: {fileID: 0}
  m_SpotCookie: {fileID: 10001, guid: 0000000000000000e000000000000000, type: 0}
  m_DefaultReflectionMode: 0
  m_DefaultReflectionResolution: 128
  m_ReflectionBounces: 1
  m_ReflectionIntensity: 1
  m_CustomReflection: {fileID: 0}
  m_Sun: {fileID: 705507994}
  m_IndirectSpecularColor: {r: 0.44657898, g: 0.4964133, b: 0.5748178, a: 1}
  m_UseRadianceAmbientProbe: 0
--- !u!157 &3
LightmapSettings:
  m_ObjectHideFlags: 0
  serializedVersion: 11
  m_GIWorkflowMode: 1
  m_GISettings:
    serializedVersion: 2
    m_BounceScale: 1
    m_IndirectOutputScale: 1
    m_AlbedoBoost: 1
    m_EnvironmentLightingMode: 0
    m_EnableBakedLightmaps: 1
    m_EnableRealtimeLightmaps: 0
  m_LightmapEditorSettings:
    serializedVersion: 12
    m_Resolution: 2
    m_BakeResolution: 40
    m_AtlasSize: 1024
    m_AO: 0
    m_AOMaxDistance: 1
    m_CompAOExponent: 1
    m_CompAOExponentDirect: 0
    m_ExtractAmbientOcclusion: 0
    m_Padding: 2
    m_LightmapParameters: {fileID: 0}
    m_LightmapsBakeMode: 1
    m_TextureCompression: 1
    m_FinalGather: 0
    m_FinalGatherFiltering: 1
    m_FinalGatherRayCount: 256
    m_ReflectionCompression: 2
    m_MixedBakeMode: 2
    m_BakeBackend: 1
    m_PVRSampling: 1
    m_PVRDirectSampleCount: 32
    m_PVRSampleCount: 500
    m_PVRBounces: 2
    m_PVREnvironmentSampleCount: 500
    m_PVREnvironmentReferencePointCount: 2048
    m_PVRFilteringMode: 2
    m_PVRDenoiserTypeDirect: 0
    m_PVRDenoiserTypeIndirect: 0
    m_PVRDenoiserTypeAO: 0
    m_PVRFilterTypeDirect: 0
    m_PVRFilterTypeIndirect: 0
    m_PVRFilterTypeAO: 0
    m_PVREnvironmentMIS: 0
    m_PVRCulling: 1
    m_PVRFilteringGaussRadiusDirect: 1
    m_PVRFilteringGaussRadiusIndirect: 5
    m_PVRFilteringGaussRadiusAO: 2
    m_PVRFilteringAtrousPositionSigmaDirect: 0.5
    m_PVRFilteringAtrousPositionSigmaIndirect: 2
    m_PVRFilteringAtrousPositionSigmaAO: 1
    m_ExportTrainingData: 0
    m_TrainingDataDestination: TrainingData
    m_LightProbeSampleCountMultiplier: 4
  m_LightingDataAsset: {fileID: 0}
  m_UseShadowmask: 1
--- !u!196 &4
NavMeshSettings:
  serializedVersion: 2
  m_ObjectHideFlags: 0
  m_BuildSettings:
    serializedVersion: 2
    agentTypeID: 0
    agentRadius: 0.5
    agentHeight: 2
    agentSlope: 45
    agentClimb: 0.4
    ledgeDropHeight: 0
    maxJumpAcrossDistance: 0
    minRegionArea: 2
    manualCellSize: 0
    cellSize: 0.16666667
    manualTileSize: 0
    tileSize: 256
    accuratePlacement: 0
    debug:
      m_Flags: 0
  m_NavMeshData: {fileID: 0}
--- !u!1 &435580683
GameObject:
  m_ObjectHideFlags: 0
  m_CorrespondingSourceObject: {fileID: 0}
  m_PrefabInstance: {fileID: 0}
  m_PrefabAsset: {fileID: 0}
  serializedVersion: 6
  m_Component:
  - component: {fileID: 435580686}
  - component: {fileID: 435580685}
  - component: {fileID: 435580684}
  m_Layer: 0
  m_Name: Terrain
  m_TagString: Untagged
  m_Icon: {fileID: 0}
  m_NavMeshLayer: 0
  m_StaticEditorFlags: 4294967295
  m_IsActive: 1
--- !u!154 &435580684
TerrainCollider:
  m_ObjectHideFlags: 0
  m_CorrespondingSourceObject: {fileID: 0}
  m_PrefabInstance: {fileID: 0}
  m_PrefabAsset: {fileID: 0}
  m_GameObject: {fileID: 435580683}
  m_Material: {fileID: 0}
  m_Enabled: 1
  m_TerrainData: {fileID: 15600000, guid: be5d66b3098e7cb458348b073e6283e4, type: 2}
  m_EnableTreeColliders: 1
--- !u!218 &435580685
Terrain:
  m_ObjectHideFlags: 0
  m_CorrespondingSourceObject: {fileID: 0}
  m_PrefabInstance: {fileID: 0}
  m_PrefabAsset: {fileID: 0}
  m_GameObject: {fileID: 435580683}
  m_Enabled: 1
  serializedVersion: 6
  m_TerrainData: {fileID: 15600000, guid: be5d66b3098e7cb458348b073e6283e4, type: 2}
  m_TreeDistance: 5000
  m_TreeBillboardDistance: 50
  m_TreeCrossFadeLength: 5
  m_TreeMaximumFullLODCount: 50
  m_DetailObjectDistance: 80
  m_DetailObjectDensity: 1
  m_HeightmapPixelError: 5
  m_SplatMapDistance: 1000
  m_HeightmapMaximumLOD: 0
  m_ShadowCastingMode: 2
  m_DrawHeightmap: 1
  m_DrawInstanced: 0
  m_DrawTreesAndFoliage: 1
  m_ReflectionProbeUsage: 1
  m_MaterialTemplate: {fileID: 10652, guid: 0000000000000000f000000000000000, type: 0}
  m_BakeLightProbesForTrees: 1
  m_PreserveTreePrototypeLayers: 0
  m_DeringLightProbesForTrees: 1
  m_ScaleInLightmap: 0.0256
  m_LightmapParameters: {fileID: 15203, guid: 0000000000000000f000000000000000, type: 0}
  m_GroupingID: 0
  m_RenderingLayerMask: 1
  m_AllowAutoConnect: 1
--- !u!4 &435580686
Transform:
  m_ObjectHideFlags: 0
  m_CorrespondingSourceObject: {fileID: 0}
  m_PrefabInstance: {fileID: 0}
  m_PrefabAsset: {fileID: 0}
  m_GameObject: {fileID: 435580683}
  m_LocalRotation: {x: 0, y: 0, z: 0, w: 1}
  m_LocalPosition: {x: 0, y: 0, z: 0}
  m_LocalScale: {x: 1, y: 1, z: 1}
  m_Children: []
  m_Father: {fileID: 0}
  m_RootOrder: 4
  m_LocalEulerAnglesHint: {x: 0, y: 0, z: 0}
--- !u!1 &705507993
GameObject:
  m_ObjectHideFlags: 0
  m_CorrespondingSourceObject: {fileID: 0}
  m_PrefabInstance: {fileID: 0}
  m_PrefabAsset: {fileID: 0}
  serializedVersion: 6
  m_Component:
  - component: {fileID: 705507995}
  - component: {fileID: 705507994}
  m_Layer: 0
  m_Name: Directional Light
  m_TagString: Untagged
  m_Icon: {fileID: 0}
  m_NavMeshLayer: 0
  m_StaticEditorFlags: 0
  m_IsActive: 1
--- !u!108 &705507994
Light:
  m_ObjectHideFlags: 0
  m_CorrespondingSourceObject: {fileID: 0}
  m_PrefabInstance: {fileID: 0}
  m_PrefabAsset: {fileID: 0}
  m_GameObject: {fileID: 705507993}
  m_Enabled: 1
  serializedVersion: 10
  m_Type: 1
  m_Shape: 0
  m_Color: {r: 1, g: 0.95686275, b: 0.8392157, a: 1}
  m_Intensity: 1
  m_Range: 10
  m_SpotAngle: 30
  m_InnerSpotAngle: 21.80208
  m_CookieSize: 10
  m_Shadows:
    m_Type: 2
    m_Resolution: -1
    m_CustomResolution: -1
    m_Strength: 1
    m_Bias: 0.05
    m_NormalBias: 0.4
    m_NearPlane: 0.2
    m_CullingMatrixOverride:
      e00: 1
      e01: 0
      e02: 0
      e03: 0
      e10: 0
      e11: 1
      e12: 0
      e13: 0
      e20: 0
      e21: 0
      e22: 1
      e23: 0
      e30: 0
      e31: 0
      e32: 0
      e33: 1
    m_UseCullingMatrixOverride: 0
  m_Cookie: {fileID: 0}
  m_DrawHalo: 0
  m_Flare: {fileID: 0}
  m_RenderMode: 0
  m_CullingMask:
    serializedVersion: 2
    m_Bits: 4294967295
  m_RenderingLayerMask: 1
  m_Lightmapping: 1
  m_LightShadowCasterMode: 0
  m_AreaSize: {x: 1, y: 1}
  m_BounceIntensity: 1
  m_ColorTemperature: 6570
  m_UseColorTemperature: 0
  m_BoundingSphereOverride: {x: 0, y: 0, z: 0, w: 0}
  m_UseBoundingSphereOverride: 0
  m_ShadowRadius: 0
  m_ShadowAngle: 0
--- !u!4 &705507995
Transform:
  m_ObjectHideFlags: 0
  m_CorrespondingSourceObject: {fileID: 0}
  m_PrefabInstance: {fileID: 0}
  m_PrefabAsset: {fileID: 0}
  m_GameObject: {fileID: 705507993}
  m_LocalRotation: {x: 0.40821788, y: -0.23456968, z: 0.10938163, w: 0.8754261}
  m_LocalPosition: {x: 0, y: 3, z: 0}
  m_LocalScale: {x: 1, y: 1, z: 1}
  m_Children: []
  m_Father: {fileID: 0}
  m_RootOrder: 2
  m_LocalEulerAnglesHint: {x: 50, y: -30, z: 0}
--- !u!4 &1525751230 stripped
Transform:
  m_CorrespondingSourceObject: {fileID: 4143001882056391671, guid: 5f7b474f422feba40a1e8bc2f21da618,
    type: 3}
  m_PrefabInstance: {fileID: 4138604436327617062}
  m_PrefabAsset: {fileID: 0}
--- !u!1001 &1601971526
PrefabInstance:
  m_ObjectHideFlags: 0
  serializedVersion: 2
  m_Modification:
    m_TransformParent: {fileID: 0}
    m_Modifications:
    - target: {fileID: -8679921383154817045, guid: 5c8d17e225af3f0458bac9498283899d,
        type: 3}
      propertyPath: m_RootOrder
      value: 1
      objectReference: {fileID: 0}
    - target: {fileID: -8679921383154817045, guid: 5c8d17e225af3f0458bac9498283899d,
        type: 3}
      propertyPath: m_LocalPosition.x
      value: 9.078657
      objectReference: {fileID: 0}
    - target: {fileID: -8679921383154817045, guid: 5c8d17e225af3f0458bac9498283899d,
        type: 3}
      propertyPath: m_LocalPosition.y
      value: 0.07
      objectReference: {fileID: 0}
    - target: {fileID: -8679921383154817045, guid: 5c8d17e225af3f0458bac9498283899d,
        type: 3}
      propertyPath: m_LocalPosition.z
      value: 15.252483
      objectReference: {fileID: 0}
    - target: {fileID: -8679921383154817045, guid: 5c8d17e225af3f0458bac9498283899d,
        type: 3}
      propertyPath: m_LocalRotation.w
      value: 0
      objectReference: {fileID: 0}
    - target: {fileID: -8679921383154817045, guid: 5c8d17e225af3f0458bac9498283899d,
        type: 3}
      propertyPath: m_LocalRotation.x
      value: 0
      objectReference: {fileID: 0}
    - target: {fileID: -8679921383154817045, guid: 5c8d17e225af3f0458bac9498283899d,
        type: 3}
      propertyPath: m_LocalRotation.y
      value: 1
      objectReference: {fileID: 0}
    - target: {fileID: -8679921383154817045, guid: 5c8d17e225af3f0458bac9498283899d,
        type: 3}
      propertyPath: m_LocalRotation.z
      value: 0
      objectReference: {fileID: 0}
    - target: {fileID: -8679921383154817045, guid: 5c8d17e225af3f0458bac9498283899d,
        type: 3}
      propertyPath: m_LocalEulerAnglesHint.x
      value: 0
      objectReference: {fileID: 0}
    - target: {fileID: -8679921383154817045, guid: 5c8d17e225af3f0458bac9498283899d,
        type: 3}
      propertyPath: m_LocalEulerAnglesHint.y
      value: 180
      objectReference: {fileID: 0}
    - target: {fileID: -8679921383154817045, guid: 5c8d17e225af3f0458bac9498283899d,
        type: 3}
      propertyPath: m_LocalEulerAnglesHint.z
      value: 0
      objectReference: {fileID: 0}
    - target: {fileID: 919132149155446097, guid: 5c8d17e225af3f0458bac9498283899d,
        type: 3}
      propertyPath: m_Name
      value: spider man sam raimi@Northern Soul Spin Combo
      objectReference: {fileID: 0}
    - target: {fileID: 5866666021909216657, guid: 5c8d17e225af3f0458bac9498283899d,
        type: 3}
      propertyPath: m_Controller
      value: 
      objectReference: {fileID: 9100000, guid: bd4630c57130a3648b24e9da3850f655, type: 2}
    m_RemovedComponents: []
  m_SourcePrefab: {fileID: 100100000, guid: 5c8d17e225af3f0458bac9498283899d, type: 3}
--- !u!1 &1715085020 stripped
GameObject:
  m_CorrespondingSourceObject: {fileID: 919132149155446097, guid: 5c8d17e225af3f0458bac9498283899d,
    type: 3}
  m_PrefabInstance: {fileID: 1601971526}
  m_PrefabAsset: {fileID: 0}
--- !u!54 &1715085021
Rigidbody:
  m_ObjectHideFlags: 0
  m_CorrespondingSourceObject: {fileID: 0}
  m_PrefabInstance: {fileID: 0}
  m_PrefabAsset: {fileID: 0}
  m_GameObject: {fileID: 1715085020}
  serializedVersion: 2
  m_Mass: 1
  m_Drag: 0
  m_AngularDrag: 0.05
  m_UseGravity: 0
  m_IsKinematic: 0
  m_Interpolate: 0
  m_Constraints: 0
  m_CollisionDetection: 0
--- !u!1 &1958552400
GameObject:
  m_ObjectHideFlags: 0
  m_CorrespondingSourceObject: {fileID: 0}
  m_PrefabInstance: {fileID: 0}
  m_PrefabAsset: {fileID: 0}
  serializedVersion: 6
  m_Component:
  - component: {fileID: 1958552401}
  m_Layer: 0
  m_Name: FollowTarget
  m_TagString: Untagged
  m_Icon: {fileID: 0}
  m_NavMeshLayer: 0
  m_StaticEditorFlags: 0
  m_IsActive: 1
--- !u!4 &1958552401
Transform:
  m_ObjectHideFlags: 0
  m_CorrespondingSourceObject: {fileID: 0}
  m_PrefabInstance: {fileID: 0}
  m_PrefabAsset: {fileID: 0}
  m_GameObject: {fileID: 1958552400}
  m_LocalRotation: {x: 0, y: 0, z: 0, w: 1}
  m_LocalPosition: {x: 0.028, y: 1.532, z: -0.094}
  m_LocalScale: {x: 1, y: 1, z: 1}
  m_Children: []
  m_Father: {fileID: 1525751230}
  m_RootOrder: 21
  m_LocalEulerAnglesHint: {x: 0, y: 0, z: 0}
--- !u!1001 &4138604436327617062
PrefabInstance:
  m_ObjectHideFlags: 0
  serializedVersion: 2
  m_Modification:
    m_TransformParent: {fileID: 0}
    m_Modifications:
    - target: {fileID: 4137394549355271111, guid: 5f7b474f422feba40a1e8bc2f21da618,
        type: 3}
      propertyPath: m_Name
      value: MainCharacter
      objectReference: {fileID: 0}
    - target: {fileID: 4137394549355271111, guid: 5f7b474f422feba40a1e8bc2f21da618,
        type: 3}
      propertyPath: m_IsActive
      value: 1
      objectReference: {fileID: 0}
    - target: {fileID: 4138604436616480514, guid: 5f7b474f422feba40a1e8bc2f21da618,
        type: 3}
      propertyPath: m_Constraints
      value: 0
      objectReference: {fileID: 0}
    - target: {fileID: 4138604436616480514, guid: 5f7b474f422feba40a1e8bc2f21da618,
        type: 3}
      propertyPath: m_CollisionDetection
      value: 0
      objectReference: {fileID: 0}
    - target: {fileID: 4138604436616480516, guid: 5f7b474f422feba40a1e8bc2f21da618,
        type: 3}
      propertyPath: AimCamera
      value: 
      objectReference: {fileID: 0}
    - target: {fileID: 4138604436616480516, guid: 5f7b474f422feba40a1e8bc2f21da618,
        type: 3}
      propertyPath: m_Enabled
      value: 1
      objectReference: {fileID: 0}
    - target: {fileID: 4138604436616480516, guid: 5f7b474f422feba40a1e8bc2f21da618,
        type: 3}
      propertyPath: DanceCamera
      value: 
      objectReference: {fileID: 0}
    - target: {fileID: 4138604436616480516, guid: 5f7b474f422feba40a1e8bc2f21da618,
        type: 3}
      propertyPath: CharacterCamera
      value: 
      objectReference: {fileID: 0}
    - target: {fileID: 4138604436616480519, guid: 5f7b474f422feba40a1e8bc2f21da618,
        type: 3}
      propertyPath: m_Center.x
      value: 0
      objectReference: {fileID: 0}
    - target: {fileID: 4138604436616480519, guid: 5f7b474f422feba40a1e8bc2f21da618,
        type: 3}
      propertyPath: m_Center.y
      value: 1
      objectReference: {fileID: 0}
    - target: {fileID: 4138604436616480519, guid: 5f7b474f422feba40a1e8bc2f21da618,
        type: 3}
      propertyPath: m_Center.z
      value: 0
      objectReference: {fileID: 0}
    - target: {fileID: 4138604436616480519, guid: 5f7b474f422feba40a1e8bc2f21da618,
        type: 3}
      propertyPath: m_SkinWidth
      value: 0.0001
      objectReference: {fileID: 0}
    - target: {fileID: 4143001882056391671, guid: 5f7b474f422feba40a1e8bc2f21da618,
        type: 3}
      propertyPath: m_RootOrder
      value: 3
      objectReference: {fileID: 0}
    - target: {fileID: 4143001882056391671, guid: 5f7b474f422feba40a1e8bc2f21da618,
        type: 3}
      propertyPath: m_LocalPosition.x
      value: 10.76
      objectReference: {fileID: 0}
    - target: {fileID: 4143001882056391671, guid: 5f7b474f422feba40a1e8bc2f21da618,
        type: 3}
      propertyPath: m_LocalPosition.y
      value: 0
      objectReference: {fileID: 0}
    - target: {fileID: 4143001882056391671, guid: 5f7b474f422feba40a1e8bc2f21da618,
        type: 3}
      propertyPath: m_LocalPosition.z
      value: 8.6
      objectReference: {fileID: 0}
    - target: {fileID: 4143001882056391671, guid: 5f7b474f422feba40a1e8bc2f21da618,
        type: 3}
      propertyPath: m_LocalRotation.w
      value: 1
      objectReference: {fileID: 0}
    - target: {fileID: 4143001882056391671, guid: 5f7b474f422feba40a1e8bc2f21da618,
        type: 3}
      propertyPath: m_LocalRotation.x
      value: 0
      objectReference: {fileID: 0}
    - target: {fileID: 4143001882056391671, guid: 5f7b474f422feba40a1e8bc2f21da618,
        type: 3}
      propertyPath: m_LocalRotation.y
      value: 0
      objectReference: {fileID: 0}
    - target: {fileID: 4143001882056391671, guid: 5f7b474f422feba40a1e8bc2f21da618,
        type: 3}
      propertyPath: m_LocalRotation.z
      value: 0
      objectReference: {fileID: 0}
    - target: {fileID: 4143001882056391671, guid: 5f7b474f422feba40a1e8bc2f21da618,
        type: 3}
      propertyPath: m_LocalEulerAnglesHint.x
      value: 0
      objectReference: {fileID: 0}
    - target: {fileID: 4143001882056391671, guid: 5f7b474f422feba40a1e8bc2f21da618,
        type: 3}
      propertyPath: m_LocalEulerAnglesHint.y
      value: 0
      objectReference: {fileID: 0}
    - target: {fileID: 4143001882056391671, guid: 5f7b474f422feba40a1e8bc2f21da618,
        type: 3}
      propertyPath: m_LocalEulerAnglesHint.z
      value: 0
      objectReference: {fileID: 0}
    m_RemovedComponents: []
  m_SourcePrefab: {fileID: 100100000, guid: 5f7b474f422feba40a1e8bc2f21da618, type: 3}
--- !u!1001 &6947036474217661472
PrefabInstance:
  m_ObjectHideFlags: 0
  serializedVersion: 2
  m_Modification:
    m_TransformParent: {fileID: 0}
    m_Modifications:
    - target: {fileID: 915768312307474101, guid: d4999fc752e89aa4cb705be1680abc41,
        type: 3}
      propertyPath: m_Follow
      value: 
      objectReference: {fileID: 1525751230}
    - target: {fileID: 915768312307474101, guid: d4999fc752e89aa4cb705be1680abc41,
        type: 3}
      propertyPath: m_LookAt
      value: 
      objectReference: {fileID: 1525751230}
    - target: {fileID: 915768313103685186, guid: d4999fc752e89aa4cb705be1680abc41,
        type: 3}
      propertyPath: m_Follow
      value: 
      objectReference: {fileID: 1525751230}
    - target: {fileID: 915768313103685187, guid: d4999fc752e89aa4cb705be1680abc41,
        type: 3}
      propertyPath: m_LocalPosition.x
      value: -943.4315
      objectReference: {fileID: 0}
    - target: {fileID: 915768313103685187, guid: d4999fc752e89aa4cb705be1680abc41,
        type: 3}
      propertyPath: m_LocalPosition.y
      value: 1924.3092
      objectReference: {fileID: 0}
    - target: {fileID: 915768313103685187, guid: d4999fc752e89aa4cb705be1680abc41,
        type: 3}
      propertyPath: m_LocalPosition.z
      value: -2612.8425
      objectReference: {fileID: 0}
    - target: {fileID: 915768313290306762, guid: d4999fc752e89aa4cb705be1680abc41,
        type: 3}
      propertyPath: m_LocalPosition.x
      value: -943.4315
      objectReference: {fileID: 0}
    - target: {fileID: 915768313290306762, guid: d4999fc752e89aa4cb705be1680abc41,
        type: 3}
      propertyPath: m_LocalPosition.y
      value: 1924.3092
      objectReference: {fileID: 0}
    - target: {fileID: 915768313290306762, guid: d4999fc752e89aa4cb705be1680abc41,
        type: 3}
      propertyPath: m_LocalPosition.z
      value: -2612.8425
      objectReference: {fileID: 0}
    - target: {fileID: 915768313290306762, guid: d4999fc752e89aa4cb705be1680abc41,
        type: 3}
      propertyPath: m_LocalRotation.w
      value: 1
      objectReference: {fileID: 0}
    - target: {fileID: 915768313290306762, guid: d4999fc752e89aa4cb705be1680abc41,
        type: 3}
      propertyPath: m_LocalRotation.y
      value: -0
      objectReference: {fileID: 0}
    - target: {fileID: 915768313370326495, guid: d4999fc752e89aa4cb705be1680abc41,
        type: 3}
      propertyPath: m_Follow
      value: 
      objectReference: {fileID: 1525751230}
    - target: {fileID: 6947036474019365675, guid: d4999fc752e89aa4cb705be1680abc41,
        type: 3}
      propertyPath: m_Follow
      value: 
      objectReference: {fileID: 1525751230}
    - target: {fileID: 6947036474019365675, guid: d4999fc752e89aa4cb705be1680abc41,
        type: 3}
      propertyPath: m_LookAt
      value: 
      objectReference: {fileID: 1525751230}
    - target: {fileID: 6947036474816891868, guid: d4999fc752e89aa4cb705be1680abc41,
        type: 3}
      propertyPath: m_Follow
      value: 
      objectReference: {fileID: 1958552401}
    - target: {fileID: 6947036474991732334, guid: d4999fc752e89aa4cb705be1680abc41,
        type: 3}
      propertyPath: m_Name
      value: Cameras
      objectReference: {fileID: 0}
    - target: {fileID: 6947036474991732335, guid: d4999fc752e89aa4cb705be1680abc41,
        type: 3}
      propertyPath: m_RootOrder
      value: 4
      objectReference: {fileID: 0}
    - target: {fileID: 6947036474991732335, guid: d4999fc752e89aa4cb705be1680abc41,
        type: 3}
      propertyPath: m_LocalPosition.x
      value: 954.9415
      objectReference: {fileID: 0}
    - target: {fileID: 6947036474991732335, guid: d4999fc752e89aa4cb705be1680abc41,
        type: 3}
      propertyPath: m_LocalPosition.y
      value: -1922.9092
      objectReference: {fileID: 0}
    - target: {fileID: 6947036474991732335, guid: d4999fc752e89aa4cb705be1680abc41,
        type: 3}
      propertyPath: m_LocalPosition.z
      value: 2618.4426
      objectReference: {fileID: 0}
    - target: {fileID: 6947036474991732335, guid: d4999fc752e89aa4cb705be1680abc41,
        type: 3}
      propertyPath: m_LocalRotation.w
      value: 1
      objectReference: {fileID: 0}
    - target: {fileID: 6947036474991732335, guid: d4999fc752e89aa4cb705be1680abc41,
        type: 3}
      propertyPath: m_LocalRotation.x
      value: 0
      objectReference: {fileID: 0}
    - target: {fileID: 6947036474991732335, guid: d4999fc752e89aa4cb705be1680abc41,
        type: 3}
      propertyPath: m_LocalRotation.y
      value: 0
      objectReference: {fileID: 0}
    - target: {fileID: 6947036474991732335, guid: d4999fc752e89aa4cb705be1680abc41,
        type: 3}
      propertyPath: m_LocalRotation.z
      value: 0
      objectReference: {fileID: 0}
    - target: {fileID: 6947036474991732335, guid: d4999fc752e89aa4cb705be1680abc41,
        type: 3}
      propertyPath: m_LocalEulerAnglesHint.x
      value: 0
      objectReference: {fileID: 0}
    - target: {fileID: 6947036474991732335, guid: d4999fc752e89aa4cb705be1680abc41,
        type: 3}
      propertyPath: m_LocalEulerAnglesHint.y
      value: 0
      objectReference: {fileID: 0}
    - target: {fileID: 6947036474991732335, guid: d4999fc752e89aa4cb705be1680abc41,
        type: 3}
      propertyPath: m_LocalEulerAnglesHint.z
      value: 0
      objectReference: {fileID: 0}
    - target: {fileID: 6947036475078813761, guid: d4999fc752e89aa4cb705be1680abc41,
        type: 3}
      propertyPath: m_Follow
      value: 
      objectReference: {fileID: 1958552401}
    m_RemovedComponents: []
  m_SourcePrefab: {fileID: 100100000, guid: d4999fc752e89aa4cb705be1680abc41, type: 3}
